<?xml version="1.0" encoding="utf-8"?>
<!-- Generator: Adobe Illustrator 23.0.2, SVG Export Plug-In . SVG Version: 6.00 Build 0)  -->
<svg version="1.1" id="Layer_1" xmlns="http://www.w3.org/2000/svg" xmlns:xlink="http://www.w3.org/1999/xlink" x="0px" y="0px"
	 viewBox="0 0 180 180" style="enable-background:new 0 0 180 180;" xml:space="preserve">
<style type="text/css">
	.st0{fill:#FFFFFF;}
	.st1{fill:#030F2B;}
</style>
<path class="st0" d="M90,180L90,180c-49.71,0-90-40.29-90-90v0C0,40.29,40.29,0,90,0h0c49.71,0,90,40.29,90,90v0
	C180,139.71,139.71,180,90,180z"/>
<g>
	<g>
		<g>
			<path class="st1" d="M40.44,134.57c-0.27,0-0.5-0.22-0.5-0.49c0-0.28,0.21-0.5,0.49-0.51c12.91-0.23,26.03-0.3,38.72-0.38
				c15.07-0.08,30.66-0.17,45.99-0.52c-0.43-12.49-1.2-25.27-1.94-37.63c-0.5-8.33-1.02-16.94-1.42-25.32
				c-0.08-1.67-0.7-2.25-2.43-2.31c-5.47-0.18-11.41-0.15-15.87,0.09c-2.21,0.12-3.07,0.95-4.52,2.53
				c-0.52,0.57-1.08,1.37-1.61,2.15c-0.49,0.71-0.99,1.44-1.49,2.03c-0.09,0.1-0.21,0.17-0.35,0.18
				c-18.35,1.33-36.52,1.52-53.43,1.52c-1.17,0-1.4,0.56-1.69,1.74c0,0.04,0,0.09-0.02,0.13c-0.01,0.03-0.02,0.07-0.04,0.1
				c-0.12,0.24-0.42,0.35-0.67,0.23c-0.01,0-0.02-0.01-0.03-0.01c-0.2-0.11-0.31-0.34-0.26-0.56c0.29-1.17,0.64-2.62,2.69-2.62
				c16.82-0.01,34.9-0.19,53.14-1.5c0.43-0.53,0.87-1.17,1.3-1.79c0.56-0.81,1.13-1.64,1.7-2.26c1.54-1.68,2.61-2.71,5.21-2.85
				c4.5-0.24,10.46-0.27,15.96-0.09c2.28,0.08,3.29,1.05,3.4,3.26c0.41,8.38,0.92,16.99,1.42,25.31
				c0.75,12.53,1.53,25.49,1.96,38.16c0,0.13-0.04,0.26-0.14,0.36c-0.09,0.1-0.22,0.15-0.35,0.16c-15.51,0.36-31.27,0.45-46.51,0.54
				C66.47,134.27,53.35,134.34,40.44,134.57C40.44,134.57,40.44,134.57,40.44,134.57z"/>
			<path class="st1" d="M40.43,134.56c-0.26,0-0.47-0.19-0.5-0.45c-0.54-5.46-1.04-10.96-1.54-16.47
				c-1.11-12.21-2.26-24.83-3.83-36.96c-0.15-1.18,0.02-2.03,0.51-2.6c0.49-0.56,1.29-0.84,2.45-0.85
				c14.01-0.12,28.42-0.62,42.35-1.11c11.44-0.4,23.28-0.81,34.81-1.01c1.98-0.08,2.96,0.83,3.28,2.88
				c0.64,4.16,1.28,8.35,1.94,12.56c2.16,13.96,4.4,28.4,6.26,42.54c0.02,0.14-0.02,0.28-0.12,0.39c-0.09,0.11-0.23,0.17-0.37,0.17
				c-15.72,0.36-31.71,0.45-47.16,0.54C66.03,134.28,53.13,134.35,40.43,134.56C40.43,134.56,40.43,134.56,40.43,134.56z
				 M114.8,76.12c-0.04,0-0.07,0-0.11,0c-11.53,0.2-23.35,0.61-34.79,1.01c-13.94,0.49-28.36,0.99-42.38,1.11
				c-0.85,0.01-1.41,0.17-1.7,0.51c-0.3,0.34-0.39,0.93-0.27,1.81c1.57,12.14,2.73,24.78,3.84,36.99c0.49,5.35,0.97,10.69,1.5,16
				c12.55-0.21,25.29-0.28,37.62-0.35c15.27-0.09,31.05-0.18,46.58-0.53c-1.85-13.95-4.05-28.19-6.19-41.96
				c-0.65-4.21-1.3-8.39-1.94-12.56C116.73,76.62,116.2,76.12,114.8,76.12z"/>
		</g>
		<g>
			<path class="st1" d="M124.58,112.57c-0.27,0-0.49-0.21-0.5-0.48c-0.01-0.28,0.2-0.51,0.48-0.52c3.14-0.15,6.28-0.33,9.41-0.51
				c3.44-0.2,7-0.4,10.51-0.56c-0.29-7.26-0.6-14.55-0.91-21.85c-0.56-13.17-1.14-26.79-1.57-40c-0.05-1.61-0.63-2.15-2.37-2.19
				c-3.35-0.09-7.21,0.02-10.95,0.13c-1.67,0.05-3.31,0.1-4.84,0.12c-2.22,0.04-3.19,0.73-4.74,2.2c-0.57,0.54-1.17,1.27-1.75,1.99
				c-0.51,0.62-1.03,1.26-1.55,1.8c-0.09,0.1-0.22,0.15-0.36,0.15c-12.32,0.01-24.92,0.67-37.09,1.32
				c-5.62,0.3-11.43,0.6-17.12,0.84c-1.2,0.05-1.5,0.6-1.82,1.85c0,0.07-0.01,0.15-0.05,0.21c-0.11,0.24-0.42,0.35-0.67,0.24
				c-0.23-0.1-0.35-0.34-0.29-0.58c0.3-1.17,0.67-2.63,2.78-2.72c5.68-0.24,11.49-0.54,17.11-0.84c12.12-0.64,24.65-1.3,36.93-1.32
				c0.44-0.47,0.9-1.04,1.35-1.58c0.6-0.74,1.23-1.5,1.84-2.08c1.55-1.46,2.76-2.42,5.41-2.47c1.53-0.03,3.16-0.08,4.83-0.12
				c3.74-0.11,7.62-0.22,11-0.13c2.27,0.06,3.27,1.01,3.34,3.16c0.43,13.21,1.01,26.82,1.57,39.99c0.32,7.47,0.64,14.93,0.93,22.35
				c0.01,0.27-0.2,0.51-0.48,0.52c-3.67,0.16-7.4,0.38-11,0.58c-3.14,0.18-6.28,0.36-9.42,0.51
				C124.59,112.57,124.59,112.57,124.58,112.57z"/>
			<path class="st1" d="M124.58,112.57c-0.27,0-0.49-0.21-0.5-0.48c-0.01-0.28,0.2-0.51,0.48-0.52c3.13-0.15,6.26-0.33,9.39-0.51
				c3.43-0.2,6.97-0.4,10.48-0.56c-1.08-7.94-2.19-15.95-3.3-23.95c-1.38-9.96-2.76-19.92-4.08-29.73c-0.21-1.52-0.67-1.93-2.2-1.91
				c-18.57,0.33-37.69,1.05-56.18,1.75c-7.41,0.28-14.8,0.56-22.14,0.81c-0.79,0.03-1.33,0.21-1.65,0.56
				c-0.34,0.37-0.47,1-0.42,1.91c0.16,2.66,0.61,5.64,1.04,8.51c0.34,2.25,0.69,4.57,0.9,6.74c0.03,0.28-0.17,0.52-0.45,0.55
				c-0.28,0.02-0.52-0.17-0.55-0.45c-0.21-2.14-0.56-4.45-0.89-6.69c-0.44-2.9-0.89-5.89-1.05-8.6c-0.07-1.22,0.14-2.05,0.68-2.64
				c0.51-0.56,1.28-0.85,2.35-0.88c7.34-0.25,14.73-0.53,22.14-0.81c18.5-0.7,37.62-1.42,56.2-1.75c2.02-0.04,2.93,0.74,3.2,2.77
				c1.32,9.81,2.7,19.76,4.08,29.72c1.13,8.18,2.27,16.38,3.37,24.5c0.02,0.14-0.02,0.28-0.11,0.39c-0.09,0.11-0.22,0.17-0.36,0.18
				c-3.68,0.16-7.41,0.38-11.02,0.58c-3.13,0.18-6.26,0.36-9.4,0.51C124.59,112.57,124.59,112.57,124.58,112.57z"/>
		</g>
	</g>
	<g>
		<path class="st1" d="M77.22,85.95c-11.1,0.32-19.63,8.67-19.12,19.92c0.5,11.25,10.14,18.78,21.19,18.8
			c11.05,0.03,18.6-8.23,18.12-19.24C96.93,94.41,88.32,85.63,77.22,85.95z M80.4,93.63c0.33,5.09,0.57,10.19,0.88,15.28
			c-2.01,0.06-4.01,0.11-6.02,0.17c-0.92-4.83-1.71-9.68-2.4-14.55C75.39,94.28,77.9,93.96,80.4,93.63z M81.94,116.78
			c-0.72,0.55-1.49,0.7-2.4,0.7c-0.91,0-1.81-0.22-2.61-0.73c-0.8-0.51-1.21-1.33-1.31-2.25c-0.1-0.92,0.08-1.77,0.85-2.31
			s1.6-0.67,2.52-0.67c0.92,0,1.76,0.2,2.55,0.71c0.79,0.51,1.15,1.4,1.22,2.3C82.84,115.43,82.67,116.23,81.94,116.78z"/>
		<path class="st1" d="M79.34,127.76c-13.32,0-23.68-9.41-24.13-21.9C55,99.71,57.05,94,60.99,89.78c4.05-4.33,9.79-6.84,16.17-7.05
			c12.5-0.4,22.78,9.48,23.39,22.54l0,0c0.29,6.3-1.72,12.05-5.67,16.19c-3.87,4.06-9.36,6.3-15.48,6.31
			C79.38,127.76,79.36,127.76,79.34,127.76z M77.92,83.72c-0.24,0-0.48,0-0.72,0.01c-6.12,0.2-11.61,2.59-15.48,6.73
			c-3.76,4.03-5.71,9.48-5.51,15.36c0.42,11.95,10.36,20.94,23.13,20.94c0.02,0,0.04,0,0.06,0c5.84-0.01,11.09-2.14,14.76-6
			c3.75-3.94,5.67-9.43,5.39-15.45l0,0C98.99,93.06,89.55,83.72,77.92,83.72z"/>
	</g>
</g>
</svg>
